Conoce a las tibbles - Diseñando una experiencia ...
…
Requisitos

En este capítulo exploraremos el paquete tibble, parte de los paquetes principales del tidyverse. Usaremos datasets incluidos en el paquete datos

library(tidyverse)
library(datos)

Creando tibbles

La mayoría de las funciones que usarás en este tutorial producen tibbles, ya que son una de las características trasversales del tidyverse. La mayoría de los paquetes de R suelen usar data frames clásicos, así que algo que podrías querer hacer es convertir un data frame en un tibble. Esto lo puedes hacer con as_tibble():

as_tibble(flores)

## # A tibble: 150 x 5
##    Largo.Sepalo Ancho.Sepalo Largo.Petalo Ancho.Petalo Especies
##           <dbl>        <dbl>        <dbl>        <dbl> <fct>   
##  1          5.1          3.5          1.4          0.2 setosa  
##  2          4.9          3            1.4          0.2 setosa  
##  3          4.7          3.2          1.3          0.2 setosa  
##  4          4.6          3.1          1.5          0.2 setosa  
##  5          5            3.6          1.4          0.2 setosa  
##  6          5.4          3.9          1.7          0.4 setosa  
##  7          4.6          3.4          1.4          0.3 setosa  
##  8          5            3.4          1.5          0.2 setosa  
##  9          4.4          2.9          1.4          0.2 setosa  
## 10          4.9          3.1          1.5          0.1 setosa  
## # ... with 140 more rows
…
Existen dos diferencias principales entre el uso de un tibble y un data.frame clásico: la impresión en la consola y la selección de los subconjuntos.

Impresión en la consola

Los tibbles tienen un método de impresión en la consola refinado: solo muestran las primeras 10 filas y solo aquellas columnas que entran en el ancho de la pantalla. Esto simplifica y facilita trabajar con bases de datos grandes. Además del nombre, cada columna muestra su tipo. Esto último es una gran característica tomada de str().

tibble(
  a = lubridate::now() + runif(1e3) * 86400,
  b = lubridate::today() + runif(1e3) * 30,
  c = 1:1e3,
  d = runif(1e3),
  e = sample(letters, 1e3, replace = TRUE)
)

## # A tibble: 1,000 x 5
##    a                   b              c      d e    
##    <dttm>              <date>     <int>  <dbl> <chr>
##  1 2019-10-11 09:12:34 2019-11-07     1 0.454  u    
##  2 2019-10-11 00:02:14 2019-11-03     2 0.630  c    
##  3 2019-10-10 15:16:12 2019-11-07     3 0.158  o    
##  4 2019-10-11 02:46:45 2019-10-16     4 0.541  l    
##  5 2019-10-10 20:18:54 2019-11-02     5 0.200  x    
##  6 2019-10-11 09:13:12 2019-11-01     6 0.983  a    
##  7 2019-10-11 10:34:53 2019-11-08     7 0.0200 o    
##  8 2019-10-11 10:49:50 2019-11-03     8 0.808  z    
##  9 2019-10-11 09:24:27 2019-11-05     9 0.227  r    
## 10 2019-10-10 18:23:34 2019-11-08    10 0.367  a    
## # ... with 990 more rows
…
